Name,Description,wire_top,wire_intersection,circle_point_1,circle_point_2,circle_point_3,trigonum,distal end of inferior process
750ROP1,OP1 for 750R,0.881,37.306,0.848,1.000,-0.846,-0.372,4.174,1.646,10.385,11.830,0.367,-2.094,-11.812,0.881,2.343,-2.943,-91.448,-24.520,28.869,-105.790,61.966
750ROP2,OP2 for 750R,-0.553,29.243,-0.579,0.125,-3.983,0.089,8.206,0.182,7.759,2.602,1.840,-9.856,-10.063,-4.056,-7.491,17.784,-96.100,3.753,57.627,-83.516,-75.614
259LOP1, OP1 for 259L
