vtkMRMLMarkupsFiducialNode_0	-98.848	-109.300	0.930	0.000	0.000	0.000	1.000	1	1	0	wire_top		
vtkMRMLMarkupsFiducialNode_1	-101.675	-118.531	-26.997	0.000	0.000	0.000	1.000	1	1	0	wire_intersection		vtkMRMLScalarVolumeNode1
vtkMRMLMarkupsFiducialNode_2	-103.257	-129.037	-20.336	0.000	0.000	0.000	1.000	1	1	0	circ1		
vtkMRMLMarkupsFiducialNode_3	-114.261	-117.530	-21.527	0.000	0.000	0.000	1.000	1	1	0	circ2		
vtkMRMLMarkupsFiducialNode_4	-103.510	-104.784	-25.709	0.000	0.000	0.000	1.000	1	1	0	circ3		
vtkMRMLMarkupsFiducialNode_5	-189.561	-152.608	-134.216	0.000	0.000	0.000	1.000	1	1	0	inf_angle		
vtkMRMLMarkupsFiducialNode_6	-81.138	-152.504	-125.839	0.000	0.000	0.000	1.000	1	1	0	trigonum		
