MLMarkupsFiducialNode_102	-104.825	-135.728	0.644	0.000	0.000	0.000	1.000	1	1	0	wire_top		
vtkMRMLMarkupsFiducialNode_103	-99.540	-121.039	-36.390	0.000	0.000	0.000	1.000	1	1	0	circ1		
vtkMRMLMarkupsFiducialNode_104	-105.509	-141.956	-33.528	0.000	0.000	0.000	1.000	1	1	0	circ2		
vtkMRMLMarkupsFiducialNode_105	-96.938	-134.131	-32.391	0.000	0.000	0.000	1.000	1	1	0	circ3		
vtkMRMLMarkupsFiducialNode_106	-94.833	-143.165	-130.884	0.000	0.000	0.000	1.000	1	1	0	trigonum		
vtkMRMLMarkupsFiducialNode_107	-17.330	-153.567	-122.997	0.000	0.000	0.000	1.000	1	1	0	inf_angle		
vtkMRMLMarkupsFiducialNode_108	-105.825	-131.468	-39.423	0.000	0.000	0.000	1.000	1	1	0	wire_intersection		vtkMRMLScalarVolumeNode23
